{




"spider":"https://agit.ai/guot54/ygbh/raw/branch/master/JAR/0606.jar;md5; 3A017244A8B8691E10152BBCA9C4DE6F",

"lives":[


    
{
      "name": "live",
      "url": "http://52bsj.vip:81/api/v3/file/get/79119/ZB.txt?sign=iChDXDC7WJRTp7yWAyVdbY3si5sJ5eFwEgaR35YQGSo%3D%3A0",
      "type": 0,
      "epg": "http://epg.51zmt.top:8000/api/diyp/?ch={name}&date={date}",
      "logo": "https://epg.112114.xyz/logo/{name}.png",
      "ua": "Mozilla/5.0 (Windows NT 10.0; Win64; x64) AppleWebKit/537.36 (KHTML, like Gecko) Chrome/108.0.0.0 Safari/537.36"
    },    
    {"group":"redirect",
    "channels":[{
    "name":"redirect",
    "urls":["proxy://do=live&type=txt&ext=aHR0cDovLzUyYnNqLnZpcDo4MS9hcGkvdjMvZmlsZS9nZXQvNzkxMTkvWkIudHh0P3NpZ249aUNoRFhEQzdXSlJUcDd5V0F5VmRiWTNzaTVzSjVlRndFZ2FSMzVZUUdTbyUzRCUzQTA="]}]
    }],
"sites":[
{
            "key": "js豆瓣1",
            "name": "🌈免费接口，请勿贩售 公众号：宝盒没宝",
            "type": 3,
            "api": "https://agit.ai/guot54/TVBOXZY/raw/branch/main/JS/lib/drpy.min.js",
            "ext": "http://alist.xn--z7x900a.love:63/豆瓣.js",
            "searchable": 0,
            "quickSearch": 0,
            "filterable": 0
        },
	 {"key": "csp_lezhu","name": "🐷乐猪影视","type": 3,"api": "csp_XPath","searchable": 1,"quickSearch": 0,"filterable": 1,"ext": "http://52bsj.vip:81/api/v3/file/get/68479/%E4%B9%90%E7%8C%AAXP.json?sign=-mbGfklZSjyMYL-zyJ_0rE2igcXTzyt8TXw0nyk2-7g%3D%3A0"},
   
 {"key": "csp_appys_影探","name": "🏵影探4K","type": 3,"api": "csp_AppYsV2","searchable": 1,"quickSearch": 1,"filterable": 1,"ext": "http://longzhiqing.lfytyl.com/api.php/app/"},
 {
            "key": "dr_ymzx",
            "name": "🌙宝盒飞云4K",
            "type": 3,
            "api": "https://agit.ai/guot54/ygbhx/raw/branch/master/lib/drpy2.min.js",
            "searchable": 0,
            "quickSearch": 0,
            "filterable": 0,
            "ext": "https://agit.ai/guot54/ygbh/raw/branch/master/JS/%e9%a3%9e%e4%ba%91_V2_.js"},   
{"key":"csp_YQKAPP","name":"👩‍👦一起看电视","type":3,"api":"csp_YQKAPP","playerType":2,"searchable":1,"quickSearch":1,"filterable":1,"ext":"https://api-aws.11ty.top"},
{ 
   "key": "直播转点播", 
   "name": "🐼电视直播", 
   "type": 3, 
   "api": "https://agit.ai/guot54/ygbh/raw/branch/master/JS/%e7%9b%b4%e6%92%ad%e8%bd%ac%e5%88%86%e7%ba%bf%e7%82%b9%e6%92%ad2.js", 
   "ext": "https://agit.ai/guot54/ygbh/raw/branch/master/zB/%e7%9b%b4%e6%92%ad.js" 
  },
   {
      "key": "csp_zxzj",
      "name": "📗超前点播",
      "type": 3,
      "api": "csp_Zxzj",
      "searchable": 1,
      "quickSearch": 1,
      "filterable": 1,
      "ext": "https://www.zxzj.pro/"
    },
  {
            "key": "酷影",
            "name": "😎酷影视",
            "type": 3,
            "api": "csp_AppYsV2",
            "searchable": 1,
            "quickSearch": 1,
            "filterable": 1,
            "ext": "http://124.222.175.111:89/api.php/app/"
        },
    {
            "key": "csp_apple",
            "name": "🍎小苹果",
            "type": 3,
            "api": "csp_LiteApple",
            "playerType": 1,
            "searchable": 1,
            "quickSearch": 1,
            "filterable": 1
        },
        {
      "key": "csp_Nmys",
      "name": "🌾农民影视",
      "type": 3,
      "api": "csp_Nmys",
      "searchable": 1,
      "quickSearch": 1,
      "filterable": 1,
      "ext": "http://饭太硬.top/x/json/nmys.json"
    },
    	{
            "key" : "drpy_js_007",
            "name" : "🎫007电影",
            "type" : 3,
            "api" : "https://agit.ai/guot54/TVBOXZY/raw/branch/main/JS/lib/drpy.min.js",
            "ext" : "http://52bsj.vip:81/api/v3/file/get/155350/007%E5%BD%B1%E8%A7%86.js?sign=EkntLloZ5Uy72KNgioKclay4YDRZtPXWpw2hCdQApuE%3D%3A0"
        },
        {
            "key" : "drpy_js_NIKE影视",
            "name" : "📞NIKE影视",
            "type" : 3,
            "api" : "https://agit.ai/guot54/TVBOXZY/raw/branch/main/JS/lib/drpy.min.js",
            "ext" : "http://52bsj.vip:81/api/v3/file/get/155398/Nike%E5%BD%B1%E8%A7%86.js?sign=EdVfcAVZsJLm7zD131x4NvQIQj2B3ZAfB3y3JFFLP7o%3D%3A0"
        },
        {
      "key": "csp_fantuan",
      "name": "🍙饭团影视",
      "type": 3,
      "api": "csp_Fantuan",
      "playerType": 1,
      "searchable": 1,
      "quickSearch": 1,
      "filterable": 1
      ,"jar": "https://files.zohopublic.com.cn/public/workdrive-public/download/uyv0t678c488189af47bb91dc108484d17431;md5;09baf4a03d362d96f0fc14085c343191"
    },
        {
            "key" : "drpy_js_139",
            "name" : "🎞139电影",
            "type" : 3,
            "api" : "https://agit.ai/guot54/TVBOXZY/raw/branch/main/JS/lib/drpy.min.js",
            "ext" : "http://52bsj.vip:81/api/v3/file/get/155352/139%E5%BD%B1%E8%A7%86.js?sign=ezVUJAHaQY2oCFMZaSeE9XYlaZpamu_Hr35Fz1JH7s8%3D%3A0"
        },	
{
            "key" : "drpy_js_ddys",
            "name" : "♥ddys",
            "type" : 3,
            "api" : "https://agit.ai/guot54/TVBOXZY/raw/branch/main/JS/lib/drpy.min.js",
            "ext" : "http://52bsj.vip:81/api/v3/file/get/155379/ddys.js?sign=q8VeYexV4x-TnUL-bFgb_mvo3giD1b-k8l7gj06Mq8c%3D%3A0"
        },		
	
{"key":"csp_AppTT","name":"🐰图图影视","type":3,"api": "csp_AppTT","searchable": 1,"quickSearch": 1,"filterable": 1,"ext": "U2c3aDRRb0xMQnpWVjRhY1NSSyNIdW8wTkVCZG91ZWw=$$$U3FYMms0cWJZR2kzbzZzWQ==$$$aHR0cDovL2FwaS50dDU4LnR2L2NvbmZpZy9uZXd0di5qc29uP3NzPQ=="},
   
    {"key":"csp_Kunyu77","name":"👒七七〔SP〕","type":3,"api":"csp_Kunyu77","searchable":1,"quickSearch":1,"filterable":1},
     {
      "key": "csp_黄黄",
      "name": "😎黄黄影视",
      "api": "csp_AppYsV2",
      "type": 3,
      "filterable": 1,
      "quickSearch": 1,
      "searchable": 1,
      "ext": "https://yayayaaapp.ynf.icu/api.php/app/"
    },
    
{
            "key": "csp_BuLei",
            "name": "🍩布雷蓝光",
            "type": 3,
            "api": "csp_BuLei",
            "searchable": 1,
            "quickSearch": 1,
            "filterable": 1,
            "ext": "http://dy01.bulei.cc/$$$auto$$$sdlw1111$$$qqaa1122"
        },
       {
            "key": "csp_appys_如意4K",
            "name": "🐵️如意4K",
            "type": 3,
            "api": "csp_AppYsV2",
            "searchable": 1,
            "quickSearch": 1,
            "filterable": 1,
            "ext": "http://cms.maoyingshi.cc/api.php/app/",
            "playUrl": "json:http://jx.fuqizhishi.com:63/接口地址www.肥猫.love/肥猫专用.php?url="
        },
        {"key":"七夜","name":"😾七夜4K","type":3,"api":"csp_Dovx","searchable":1,"filterable":0,"changeable":0,"ext": "http://127.0.0.1:9978/file/tvfan/token.txt+4k|fhd|auto$$$http://tvfan.xxooo.cf/","jar": "https://agit.ai/guot54/ygbh/raw/branch/master/JAR/0613.jar"},
{"key":"csp_WoGG","name":"👽玩偶4K","type":3,"api":"csp_WoGG","searchable":1,"quickSearch":1,"filterable":1,"ext": "http://127.0.0.1:9978/file/tvfan/token.txt+4k|fhd|auto$$$http://tvfan.xxooo.cf/","jar": "https://agit.ai/guot54/ygbh/raw/branch/master/JAR/0613.jar"},
 {"key": "csp_XYQHikerAL_玩偶哥哥","name":"🤖爱看4k","type":3,"api":"csp_XYQHikerAL","playerType":1,"searchable":1,"quickSearch":1,"filterable":1,"ext":"https://jihulab.com/ymz1231/json/-/raw/main/%E7%8E%A9%E5%81%B6%E5%93%A5%E5%93%A5.json","jar": "https://agit.ai/guot54/ygbh/raw/branch/master/JAR/spider.txt;md5;B880BBAD2845D16CFB86CCA0331B2621"}, { "key": "csp_XYQHikerlg4k", "name": "💋云盘4k", "type": 3, "api": "csp_XYQHiker", "searchable": 1, "quickSearch": 1, "filterable": 1, "ext": "https://jihulab.com/ymz1231/json/-/raw/main/4KHDR.json","jar": "https://agit.ai/guot54/ygbh/raw/branch/master/JAR/spider.txt;md5;B880BBAD2845D16CFB86CCA0331B2621"}, { "key": "csp_XYQHiker4klg", "name": "💅🏻原盘4k", "type": 3, "api": "csp_XYQHiker", "searchable": 1, "quickSearch": 1, "filterable": 1, "ext": "https://jihulab.com/ymz1231/json/-/raw/main/%E4%B8%AD%E5%9B%BD%E8%93%9D%E5%85%89%E7%BD%91.json","jar": "https://agit.ai/guot54/ygbh/raw/branch/master/JAR/spider.txt;md5;B880BBAD2845D16CFB86CCA0331B2621"}, {"key":"csp_yt","name":"🥳YT4K","type":3,"api":"csp_AppYsV2","m3u8ads": "hd.youyhn.com","searchable":1,"quickSearch":1,"filterable":1,"ext":"https://www.lfytv.cn/api.php/app/"}, { "key": "csp_饭团", "name": "🦄饭团4K", "type": 3, "api": "csp_XBPQ", "searchable": 1, "quickSearch": 1, "filterable": 1, "ext": "https://jihulab.com/ymz1231/json/-/raw/main/%E9%A5%AD%E5%9B%A2.json"}, { "key": "csp_dbg", "name": "👺量子4K", "type": 3, "api":"csp_XYQHiker", "searchable": 1, "quickSearch": 1, "filterable": 1, "ext": "https://jihulab.com/ymz1231/json/-/raw/main/%E5%A4%A7%E8%A1%A8%E5%93%A5%E5%BD%B1%E9%99%A2.json","jar": "https://agit.ai/guot54/ygbh/raw/branch/master/JAR/spider.txt;md5;B880BBAD2845D16CFB86CCA0331B2621"},{ "key": "csp_XYQHiker_‍dyx", "name": "🚢电影磁力4k", "type": 3, "api": "csp_XYQHiker", "searchable": 1, "quickSearch": 1, "filterable": 1, "ext": "https://agit.ai/guot54/ygbh/raw/branch/master/XB/dyg.json","jar": "https://agit.ai/guot54/ygbh/raw/branch/master/JAR/spider.txt;md5;B880BBAD2845D16CFB86CCA0331B2621"}, { "key": "csp_xpath_yinfans", "name": "💥音范丝4K", "type": 3, "api": "csp_XPath", "searchable": 1, "quickSearch": 1, "filterable": 1, "ext": "https://jihulab.com/ymz1231/json/-/raw/main/音范丝.json"},  { "key": "狐狸", "name": "🦊狐狸蓝光", "type": 3, "api": "csp_AppYsV2", "searchable": 1, "quickSearch": 1, "filterable": 1, "ext": "https://www.kuin.one/api.php/app/" }, 
       {"key":"csp_MeiJu69","name":"🗽69美剧","api":"csp_AppYsV2","type":3,"filterable":1,"quickSearch":1,"searchable":1,"ext":"https://www.69mj.com/xgapp.php/v2/"},

     {"key":"csp_Lgyy","name":"🌀蓝光直连","type":3,"api":"csp_Lgyy","searchable":1,"quickSearch":1,"filterable":1,"ext":"https://www.lgyy.vip"},

       {
            "key" : "drpy_js_子子影视",
            "name" : "☁️子子影视",
            "type" : 3,
            "api" : "https://agit.ai/guot54/TVBOXZY/raw/branch/main/JS/lib/drpy.min.js",
            "ext" : "https://jihulab.com/ygbh1/box/-/raw/main/JS/js/%E5%AD%90%E5%AD%90%E5%BD%B1%E8%A7%86.js"
        },
        
{"key":爱迪V2,"name":"💡️爱迪影视","type":3,"api":"csp_AppYsV2","ext":"https://aidiapp.xyz/xgapp.php/v2/"}, 

        {
            "key" : "drpy_js_创艺",
            "name" : "🎞️创艺影视",
            "type" : 3,
            "api" : "https://agit.ai/guot54/TVBOXZY/raw/branch/main/JS/lib/drpy.min.js",
            "ext" : "https://jihulab.com/ygbh1/box/-/raw/main/JS/js/%E5%88%9B%E8%89%BA%E5%BD%B1%E8%A7%86.js"
        },
  {      "key": "csp_Alist1",      "name": "🅿Alist┃网盘",      "type": 3,      "api": "csp_AList",      "searchable": 1,      "quickSearch": 0,      "filterable": 0,      "ext": "https://agit.ai/guot54/ygbh/raw/branch/master/cangku/alist.json"    },     
{
            "key" : "drpy_js_8k影视",
            "name" : "🎠8K影视",
            "type" : 3,
            "api" : "https://agit.ai/guot54/TVBOXZY/raw/branch/main/JS/lib/drpy.min.js",
            "ext" : "http://52bsj.vip:81/api/v3/file/get/155366/8K%E5%BD%B1%E8%A7%86.js?sign=BsI4EAocrguSxa8rzS0TJtft-Vy7qrb6uatmPfIw3nY%3D%3A0"
        },
    
        {
            "key" : "drpy_js_263",
            "name" : "🎟MV263",
            "type" : 3,
            "api" : "https://agit.ai/guot54/TVBOXZY/raw/branch/main/JS/lib/drpy.min.js",
            "ext" : "http://52bsj.vip:81/api/v3/file/get/155397/MV263.js?sign=ZGUTsiwGV5cpOqA2m27WBkbX_qDrmQoKfa4KKbGIORo%3D%3A0"
        },
        {
            "key" : "drpy_js_乐于",
            "name" : "🧧乐鱼影视",
            "type" : 3,
            "api" : "https://agit.ai/guot54/TVBOXZY/raw/branch/main/JS/lib/drpy.min.js",
            "ext" : "http://52bsj.vip:81/api/v3/file/get/155416/%E4%B9%90%E9%B1%BC%E5%BD%B1%E8%A7%86.js?sign=5cbuYtzuDSGA47liLWDNOMFVO7YonaWL89C7r-ADO5U%3D%3A0"
        },
        {
            "key" : "drpy_js_7喜",
            "name" : "🎯7喜影院",
            "type" : 3,
            "api" : "https://agit.ai/guot54/TVBOXZY/raw/branch/main/JS/lib/drpy.min.js",
            "ext" : "http://52bsj.vip:81/api/v3/file/get/155364/7%E5%96%9C%E5%BD%B1%E9%99%A2.js?sign=Eq8B6YPER0qmF5uZyFMnl6qWJVHSU53V_zmz-6Yvq9o%3D%3A0"
        },
        {
      "key": "csp_Dy1010",
      "name": "❤️双十影视",
      "type": 3,
      "api": "csp_Dy1010",
      "searchable": 1,
      "quickSearch": 1,
      "filterable": 1
    },

  {
      "key": "csp_555",
      "name": "5⃣五五影视",
      "type": 3,
      "api": "csp_Ys555",
      "searchable": 1,
      "quickSearch": 1,
      "filterable": 1,
      "ext": "https://www.555dyy1.com"
    },
       {
      "key": "csp_Bd",
      "name": "💥哔嘀影视",
      "type": 3,
      "api": "csp_Bdys01",
      "searchable": 1,
      "quickSearch": 1,
      "filterable": 1
    },
        {
            "key": "csp_XBPQ秋霞影视",
            "name": "️🍂秋霞影视",
            "type": 3,
            "api": "csp_XBPQ",
            "searchable": 1,
            "quickSearch": 1,
            "filterable": 0,
            "ext": {
                "分类": "电影$1#连续剧$2#动漫$4#综艺$3",
                "分类url": "https://www.qiuxia360.com/vodshow/{cateId}-{area}-{by}-{class}-----{catePg}---{year}.html;;val",
                "跳转播放链接": "https://www.jfxz689.com/?url=+vod_class*url\":\"&&\"+&tm=+\"tm\":&&,+&key=+\"key\"*\"&&\"",
                "二次跳转播放链接": "https://www.jfxz689.com/API.php;post;url=+\"url\"*\"&&\"+&time=+\"time\"*\"&&\"+&key=+\"key\"*\"&&\"",
                "三次跳转播放链接": "\"url\"*\"&&\""
            }
        },
{
            "key": "csp_AppMr",
            "name": "🕺小明影视",
            "type": 3,
            "api": "csp_AppMr",
            "searchable": 1,
            "quickSearch": 1,
            "filterable": 1
            ,"jar": "http://我不是.肥猫.love:63/Jar/pandaQ230614c.jar;md5;FE290599BF2EF6D202B92B9B733F776F"
        },
        {
            "key": "csp_DiDuan",
            "name": "⏮️低端影视",
            "type": 3,
            "api": "csp_Ddrk",
            "click": "ddys.tv;#vjsp>button",
            "searchable": 1,
            "quickSearch": 1,
            "filterable": 0
        },
        {
            "key": "Czsapp",
            "name": "🥷厂长资源",
            "type": "3",
            "api": "csp_Czsapp",
            "searchable": "1",
            "quickSearch": "1",
            "filterable": "1"
        },	
{"key": "Kuaikan","name": "👁️快看","type": 3,"api": "csp_Kuaikan","searchable": 1,"quickSearch": 1,"filterable": 1},	 
{"key":"mtv_pc_焦炭影视","name":"🔥焦炭影视","type":3,"api":"csp_Cokemv","searchable":1,"quickSearch":1,"filterable":1}, 
{"key":"csp_Bttoo","name":"🐞两个BT","type":3,"api":"csp_Bttoo","searchable":1,"quickSearch":1,"filterable":1},
{
            "key" : "drpy_js_多米",
            "name" : "🍚多米影视",
            "type" : 3,
            "api" : "https://agit.ai/guot54/TVBOXZY/raw/branch/main/JS/lib/drpy.min.js",
            "ext" : "http://52bsj.vip:81/api/v3/file/get/155398/Nike%E5%BD%B1%E8%A7%86.js?sign=EdVfcAVZsJLm7zD131x4NvQIQj2B3ZAfB3y3JFFLP7o%3D%3A0"
        },
{"key":"Gitcafe","name":"📜纸条","type":"3","api":"csp_Paper","searchable":"1","quickSearch":"1","filterable":"1","ext":"http://ali.饭太硬.ml/alitoken","jar": "https://agit.ai/guot54/ygbh/raw/branch/master/JAR/0613.jar"},
    {"key":"Upso","name":"☁️云搜","type":"3","api":"csp_UpYun","searchable":"1","quickSearch":"1","filterable":"1","ext":"http://ali.饭太硬.ml/alitoken","jar": "https://agit.ai/guot54/ygbh/raw/branch/master/JAR/0613.jar"},
    {"key":"Zhaozy","name":"🗽资源","type":"3","api":"csp_Zhaozy","searchable":"1","quickSearch":"1","filterable":"1","ext":"http://ali.饭太硬.ml/alitoken$$$yingshi$$$abcd1234","jar": "https://agit.ai/guot54/ygbh/raw/branch/master/JAR/0613.jar"},
    {"key":"YiSo","name":"🔍易搜","type":"3","api":"csp_YiSo","searchable":"1","quickSearch":"1","filterable":"1","ext":"http://127.0.0.1:9978/file/tvfan/token.txt+4k|fhd|auto","jar": "https://agit.ai/guot54/ygbh/raw/branch/master/JAR/0613.jar"},
    {"key":"AliPS","name":"🔎盘搜","type":"3","api":"csp_PanSou","searchable":"1","quickSearch":"1","filterable":"1","ext":"http://127.0.0.1:9978/file/tvfan/token.txt+4k|fhd|auto","jar": "https://agit.ai/guot54/ygbh/raw/branch/master/JAR/0613.jar"},
   {
      "key": "TuGou",
      "name": "😿土狗搜索",
      "type": 3,
      "api": "csp_TuGou",
      "searchable": 1,
      "quickSearch": 1,
      "changeable": 0,
      "ext": "http://127.0.0.1:9978/file/tvfan/token.txt"
    ,"jar": "https://agit.ai/guot54/ygbh/raw/branch/master/JAR/0613.jar"},
    {
      "key": "UpYun",
      "name": "😻Up搜索",
      "type": 3,
      "api": "csp_UpYun",
      "searchable": 1,
      "quickSearch": 1,
      "filterable": 0,
      "changeable": 0,
      "ext": "http://127.0.0.1:9978/file/tvfan/token.txt+4k|fhd|auto"
    ,"jar": "https://agit.ai/guot54/ygbh/raw/branch/master/JAR/0613.jar"},
    {
      "key": "PanSearch",
      "name": "🙀盘Se搜索",
      "type": 3,
      "api": "csp_PanSearch",
      "searchable": 1,
      "quickSearch": 1,
      "filterable": 0,
      "ext": "http://127.0.0.1:9978/file/tvfan/token.txt+4k|fhd|auto"
    ,"jar": "https://agit.ai/guot54/ygbh/raw/branch/master/JAR/0613.jar"}, 
    
{"key":"csp_Bttwoo","name":"✌2BT(SP)","type":3,"api":"csp_Bttwoo","searchable":1,"quickSearch":1,"filterable":1},
{"key":"sliu_spider", "name":"💎石榴丨影视", "type":3,"api":"csp_ShiLiuDY","filterable":1,"quickSearch":1,"playerType":2, "searchable":1,"jar":"https://gitlab.com/ygbh1/666/-/raw/main/JAR/panda1123.jar;md5; b1106a30c00023fc614c127cea04a331"},
 {"key":"csp_Auete","name":"🏝Aue(SP)","type":3,"api":"csp_Auete","searchable":1,"quickSearch":1,"filterable":1},
 {
            "key" : "drpy_js_人人影视",
            "name" : "📞人人影视",
            "type" : 3,
            "api" : "https://agit.ai/guot54/TVBOXZY/raw/branch/main/JS/lib/drpy.min.js",
            "ext" : "http://52bsj.vip:81/api/v3/file/get/155433/%E5%86%B7%E6%9B%A6%E5%BD%B1%E8%A7%86.js?sign=taamroaWkefLuU96niZUnEAk2ZU7O4H7sVkQTy6Fn5w%3D%3A0"
        },

          {
      "key": "csp_Ysgc",
      "name": "🏭影视工厂",
      "type": 3,
      "api": "csp_Ysgc",
      "searchable": 1,
      "quickSearch": 1,
      "filterable": 1,
      "ext": "https://www.ysgc.vip"
    },  
   {      "key": "csp_Smdyy",      "name": "🐴神马",      "type": 3,      "api": "csp_Smdyy",      "searchable": 1,      "quickSearch": 1,      "filterable": 1    },    {      "key": "csp_Bd",      "name": "💥哔嘀影视",      "type": 3,      "api": "csp_Bdys01",      "playerType": 1,      "searchable": 1,      "quickSearch": 1,      "filterable": 1    }, 
{      "key": "csp_SP33",      "name": "📺三三┃解析",      "type": 3,      "api": "csp_SP33",      "searchable": 1,      "quickSearch": 1,      "filterable": 1,      "changeable": 0    },    {      "key": "Qtv",      "name": "🐧腾讯解析",      "type": 3,      "api": "csp_Qtv",      "searchable": 1,      "quickSearch": 1,      "filterable": 1,      "changeable": 0    },    {      "key": "Itv",      "name": "🥝爱奇艺解析",      "type": 3,      "api": "csp_Itv",      "quickSearch": 1,      "searchable": 1,      "filterable": 1,      "changeable": 0    },    {      "key": "Mtv",      "name": "🍋芒果解析",      "type": 3,      "api": "csp_Mtv",      "searchable": 1,      "quickSearch": 1,      "filterable": 1,      "changeable": 0    }, 
{
      "key": "youku",
      "name": "👑优酷（官）",
      "type": 0,
      "api": "https://www.zycaiji.net:7788/api.php/provide/vod/from/youku/at/xml/",
      "searchable": 0,
      "quickSearch": 0,
      "filterable": 0,
      "categories": [
        "综艺",
        "动漫",
        "动作片",
        "喜剧片",
        "爱情片",
        "科幻片",
        "恐怖片",
        "剧情片",
        "战争片",
        "国产剧",
        "港台剧",
        "日韩剧",
        "欧美剧",
        "惊悚片",
        "犯罪片",
        "冒险片",
        "悬疑片",
        "动画片",
        "武侠片",
        "奇幻片",
        "少儿",
        "其他片"
      ]
    },
 {
      "key": "csp_Smdyy",
      "name": "🐴神马影视",
      "type": 3,
      "api": "csp_Smdyy",
      "searchable": 1,
      "quickSearch": 1,
      "filterable": 1
    },
{"key":"csp_XBPQ石榴影视","name":"🎞️石榴电影〔XBPQ〕","type":3,"api":"csp_xBPQ","searchable":1,"quickSearch":1,"filterable":1,"ext":"http://52bsj.vip:81/api/v3/file/get/63302/%E7%9F%B3%E6%A6%B4%E7%94%B5%E5%BD%B1%28xBPQ%29.json?sign=F59beX97EKduK2kehSA7Eb9Gbv78Fh2q8j_jcZJATr0%3D%3A0","jar":"http://52bsj.vip:81/api/v3/file/get/61833/xBPQ_1106.jar?sign=OVzxP6WlxeCthygathb2n4nXosg5HkE6NM9vkf3IFVk%3D%3A0"},
{"key":"csp_XBPQTVB影视","name":"🎞️TVB云播〔XBPQ〕","type":3,"api":"csp_xBPQ","searchable":1,"quickSearch":1,"filterable":1,"ext":"http://52bsj.vip:81/api/v3/file/get/63303/TVB%E4%BA%91%E6%92%AD%28xBPQ%29.json?sign=D7u6b1vB57heVQdexskilQyAnu6CAOY0J1gIxm0wDvs%3D%3A0","jar":"http://52bsj.vip:81/api/v3/file/get/61833/xBPQ_1106.jar?sign=OVzxP6WlxeCthygathb2n4nXosg5HkE6NM9vkf3IFVk%3D%3A0"},
{"key":"csp_XBPQ吼吼影视","name":"🎞️吼吼影视〔XBPQ〕","type":3,"api":"csp_xBPQ","searchable":1,"quickSearch":1,"filterable":1,"ext":"http://52bsj.vip:81/api/v3/file/get/63304/%E5%90%BC%E5%90%BC%28xBPQ%29.json?sign=V7Jqm42NGjs5jP8Hn7gqamNtCAMLulk5paVu0cSN7mI%3D%3A0","jar":"http://52bsj.vip:81/api/v3/file/get/61833/xBPQ_1106.jar?sign=OVzxP6WlxeCthygathb2n4nXosg5HkE6NM9vkf3IFVk%3D%3A0"},
{"key":"csp_XBPQ攻洛阁影视","name":"🎞️落阁影视〔XBPQ〕","type":3,"api":"csp_xBPQ","searchable":1,"quickSearch":1,"filterable":1,"ext":"http://52bsj.vip:81/api/v3/file/get/63305/%E8%90%BD%E6%94%BB%E9%98%81%28xBPQ%29.json?sign=ih0c4ZTkdheIFK8qLpyWhTyjVDdxArIZXEdFXM_G624%3D%3A0","jar":"http://52bsj.vip:81/api/v3/file/get/61833/xBPQ_1106.jar?sign=OVzxP6WlxeCthygathb2n4nXosg5HkE6NM9vkf3IFVk%3D%3A0"},
{"key":"csp_XBPQ凌云影视","name":"🎞️凌云影视〔XBPQ〕","type":3,"api":"csp_xBPQ","searchable":1,"quickSearch":1,"filterable":1,"ext":"http://52bsj.vip:81/api/v3/file/get/61894/%E5%87%8C%E4%BA%91%E5%BD%B1%E8%A7%86%28xBPQ%29.json?sign=d2d1m4FDU1wFRMG3Ha495rW9-VzzSUvrvANRQpheO4c%3D%3A0","jar":"http://52bsj.vip:81/api/v3/file/get/61833/xBPQ_1106.jar?sign=OVzxP6WlxeCthygathb2n4nXosg5HkE6NM9vkf3IFVk%3D%3A0"},
{"key":"csp_Bili","name":"🅱哔哩套餐","type": 3,"api": "csp_Bili","searchable": 0,"quickSearch": 0,"filterable": 1,"ext":"http://52bsj.vip:81/api/v3/file/get/64479/bilibili_2.json?sign=mT70lhyOd_pHJHA8zEjxouiG97eo0C26Ga-GP0HAB4M%3D%3A0","jar":"http://52bsj.vip:81/api/v3/file/get/64478/%E5%A4%96%E9%93%BEcookie%E8%83%BD%E7%BF%BB%E9%A1%B5.jar?sign=SLg7is9_oL_nL8yI8QRIwO11Vpav7P5eYY25FoNSYIs%3D%3A0"},
{"key": "演唱会","name": "🅱️演唱会","type": 3,"api": "csp_Bili","searchable": 0,"quickSearch": 0,"filterable": 1,"ext": "http://52bsj.vip:81/api/v3/file/get/33114/%E6%BC%94%E5%94%B1%E4%BC%9A.json?sign=JgZ1FuOl12vukIkRas_T4v4Zg_l999m2JVHDiqhGLic%3D%3A0","jar":"http://52bsj.vip:81/api/v3/file/get/64478/%E5%A4%96%E9%93%BEcookie%E8%83%BD%E7%BF%BB%E9%A1%B5.jar?sign=SLg7is9_oL_nL8yI8QRIwO11Vpav7P5eYY25FoNSYIs%3D%3A0"},
{"key": "戏曲","name": "🅱️戏曲","type": 3,"api": "csp_Bili","searchable": 0,"quickSearch": 0,"filterable": 1,"ext": "http://52bsj.vip:81/api/v3/file/get/33115/%E6%88%8F%E6%9B%B2.json?sign=dKQjA0Cnr7RHc3NkFbhjCLD7AmXE6SD5OF8pDlONKxs%3D%3A0","jar":"http://52bsj.vip:81/api/v3/file/get/64478/%E5%A4%96%E9%93%BEcookie%E8%83%BD%E7%BF%BB%E9%A1%B5.jar?sign=SLg7is9_oL_nL8yI8QRIwO11Vpav7P5eYY25FoNSYIs%3D%3A0"},
{"key": "MV","name": "🅱️歌曲MV","type": 3,"api": "csp_Bili","searchable": 0,"quickSearch": 0,"filterable": 1,"ext": "http://52bsj.vip:81/api/v3/file/get/33112/%E6%AD%8C%E6%9B%B2MV.json?sign=KB_Qwrac-uvlJFIVoaZNoyFKolNnM9ETQxd61-_wRsE%3D%3A0","jar":"http://52bsj.vip:81/api/v3/file/get/64478/%E5%A4%96%E9%93%BEcookie%E8%83%BD%E7%BF%BB%E9%A1%B5.jar?sign=SLg7is9_oL_nL8yI8QRIwO11Vpav7P5eYY25FoNSYIs%3D%3A0"},
{"key": "少儿","name": "🅱️教育","type": 3,"api": "csp_Bili","searchable": 0,"quickSearch": 0,"filterable": 0,"ext": "http://52bsj.vip:81/api/v3/file/get/33113/%E5%B0%91%E5%84%BF%E6%95%99%E8%82%B2.json?sign=M9Yy0JDj_uwsAsiHY0YChEk27S55kj30rdi_3zU7Nb4%3D%3A0","jar":"http://52bsj.vip:81/api/v3/file/get/64478/%E5%A4%96%E9%93%BEcookie%E8%83%BD%E7%BF%BB%E9%A1%B5.jar?sign=SLg7is9_oL_nL8yI8QRIwO11Vpav7P5eYY25FoNSYIs%3D%3A0"},
{"key": "CCTV","name": "CCTV","type": 3,"api": "csp_Bili","searchable": 0,"quickSearch": 0,"filterable": 0,"ext": "http://52bsj.vip:81/api/v3/file/get/104886/cctv.json?sign=EHC5fvr6tlsLuThY5HAghaF8T-9xQZ2aj7QFrkQw0VE%3D%3A0","jar":"http://52bsj.vip:81/api/v3/file/get/64478/%E5%A4%96%E9%93%BEcookie%E8%83%BD%E7%BF%BB%E9%A1%B5.jar?sign=SLg7is9_oL_nL8yI8QRIwO11Vpav7P5eYY25FoNSYIs%3D%3A0"},
{"key": "csp_xpath_A33","name": "🎸MTV","type": 3,"api": "csp_XPath","searchable": 1,"quickSearch": 0,"filterable": 1,"ext": "http://52bsj.vip:81/api/v3/file/get/31693/mtv.json?sign=zzAxHDF7eAXNvp55rUpNfuLy31ZfUJyLTpWxwE_plBc%3D%3A0"},
{"key":"push_agent","name":"🍭推送（爱优腾/磁力/阿里）","type":3,"api":"csp_PushAgent","searchable":0,"quickSearch":0,"filterable":0,"ext":"cfe35d11f40b4872b3f6e35388b16181","jar":"http://52bsj.vip:81/api/v3/file/get/40056/%E5%8E%9F%E7%94%BB.jar?sign=Dnj7Fy_zQPEegI4pHmr7QcT8Q6ujk8tiyBjD_kn8TTk%3D%3A0"},

{
      "key":"csp_XYQBiu_短视频",
      "name":"📱短视频分享(XYQ)",
      "type":3,
      "api":"csp_XYQBiu",
      "searchable":1,
      "quickSearch":1,
      "filterable":0,
       "ext":"http://52bsj.vip:81/api/v3/file/get/46402/dsp.json?sign=UA_8tuogF31HMhrGVyNOy3aKApOec1WtlMoUYfQT-bM%3D%3A0"
    },

{
            "key" : "drpy_js_虎牙",
            "name" : "🦷虎牙直播",
            "type" : 3,
            "api" : "https://agit.ai/guot54/TVBOXZY/raw/branch/main/JS/lib/drpy.min.js",
            "ext" : "https://agit.ai/guot54/ygbh/raw/branch/master/JS/HY%e7%9b%b4%e6%92%ad.js"
        },

{
      "key": "csp_XYQBiu_斗鱼",
      "name": "🐟斗鱼直播",
      "type": 3,
      "api": "csp_XYQBiu",
      "searchable": 0,
      "quickSearch": 0,
      "filterable": 0,
      "ext": "https://agit.ai/guot54/ygbh/raw/branch/master/XYQ/%e6%96%97%e9%b1%bc%e7%9b%b4%e6%92%ad.json"
    },
{"key":"csp_Yj1211","name": "📽️在线直播","type": 3,"api": "csp_Yj1211","searchable": 1,"quickSearch": 1,"filterable": 1},
        {
            "key": "csp_XPath_企鹅体育",
            "name": "🐧企鹅体育",
            "type": 3,
            "api": "csp_XPath",
            "searchable": 0,
            "quickSearch": 0,
            "filterable": 0,
            "ext": "http://我不是.肥猫.love:63/json/企鹅直播.json"
        },
        {
            "key": "dr_88看球",
            "name": "🏀八八看球",
            "type": 3,
            "api": "http://alist.xn--z7x900a.love:63/drpy2.min.js",
            "searchable": 0,
            "quickSearch": 0,
            "filterable": 0,
            "ext": "http://alist.xn--z7x900a.love:63/88看球.js"
        },
        {
            "key": "drpy_js_JRKAN直播",
            "name": "🏀JRS看球",
            "type": 3,
            "api": "http://alist.xn--z7x900a.love:63/drpy2.min.js",
            "ext": "http://alist.xn--z7x900a.love:63/JRKAN直播.js"
        },
{
            "key" : "drpy_js_蜻蜓FM",
            "name" : "📻蜻蜓FM",
            "type" : 3,
            "api" : "https://agit.ai/guot54/TVBOXZY/raw/branch/main/JS/lib/drpy.min.js",
            "ext" : "https://jihulab.com/ygbh1/box/-/raw/main/JS/js/%E8%9C%BB%E8%9C%93FM.js"
        },
        {
            "key" : "drpy_js_喜马拉雅",
            "name" : "🌙喜马拉雅",
            "type" : 3,
            "api" : "https://agit.ai/guot54/TVBOXZY/raw/branch/main/JS/lib/drpy.min.js",
            "ext" : "https://jihulab.com/ygbh1/box/-/raw/main/JS/js/%E5%96%9C%E9%A9%AC%E6%8B%89%E9%9B%85.js"
        },
        {
            "key" : "drpy_js_DJ音乐",
            "name" : "🎵DJ音乐",
            "type" : 3,
            "api" : "https://agit.ai/guot54/TVBOXZY/raw/branch/main/JS/lib/drpy.min.js",
            "ext" : "https://jihulab.com/ygbh1/box/-/raw/main/JS/js/DJ%E9%9F%B3%E4%B9%90.js"
        },
         {
            "key" : "drpy_js_兔小贝",
            "name" : "🎈兔小贝",
            "type" : 3,
            "api" : "https://agit.ai/guot54/TVBOXZY/raw/branch/main/JS/lib/drpy.min.js",
            "ext" : "https://agit.ai/guot54/ygbh/raw/branch/master/JS/%e5%85%94%e5%b0%8f%e8%b4%9d.js"
        },
 {
      "key": "少儿教育",
      "name": "📚少儿教育",
      "type": 3,
      "api": "csp_Bili",
      "searchable": 0,
      "quickSearch": 0,
      "filterable": 1,
      "ext": "https://agit.ai/guot54/ygbh/raw/branch/master/bil/%e5%b0%91%e5%84%bf%e6%95%99%e8%82%b2.json"
    },
    {
      "key": "小学课堂",
      "name": "📚小学课堂",
      "type": 3,
      "api": "csp_Bili",
      "searchable": 0,
      "quickSearch": 0,
      "filterable": 1,
      "ext": "https://agit.ai/guot54/ygbh/raw/branch/master/bil/%e5%b0%8f%e5%ad%a6%e8%af%be%e5%a0%82.json"
    },
    {
      "key": "初中课堂",
      "name": "📚初中课堂",
      "type": 3,
      "api": "csp_Bili",
      "searchable": 0,
      "quickSearch": 0,
      "filterable": 1,
      "ext": "https://agit.ai/guot54/ygbh/raw/branch/master/bil/%e5%88%9d%e4%b8%ad%e8%af%be%e5%a0%82.json"
    },
    {
      "key": "高中教育",
      "name": "📚高中课堂",
      "type": 3,
      "api": "csp_Bili",
      "searchable": 0,
      "quickSearch": 0,
      "filterable": 1,
      "ext": "https://agit.ai/guot54/ygbh/raw/branch/master/bil/%e9%ab%98%e4%b8%ad%e8%af%be%e5%a0%82.json"
    },
{      "key": "csp_Dm84",      "name": "🚌动漫巴士",      "type": 3,      "api": "csp_Dm84",      "searchable": 1,      "quickSearch": 1,      "filterable": 1    },    {      "key": "csp_Ying",      "name": "💮樱花动漫",      "type": 3,      "api": "csp_Ying",      "searchable": 1,      "quickSearch": 1,      "filterable": 1    },    {      "key": "csp_Ysj",      "name": "🎀异界动漫",      "type": 3,      "api": "csp_Ysj",      "searchable": 1,      "quickSearch": 1,      "filterable": 1    },    {      "key": "csp_Anime1",      "name": "🐾日本动漫",      "type": 3,      "api": "csp_Anime1",      "searchable": 1,      "quickSearch": 1,      "filterable": 1    }, 
    {"key":"22","name":"接口仅供测试，请勿贩售","type":0,"api":""},
    {"key":"18","name":"请勿相信视频中的任何广告","type":0,"api":""},
    {"key":"12","name":"公众号:宝盒没宝 提供维护","type":0,"api":""}
],


"parses":[
 {
            "name": "Json轮询",
            "type": 2,
            "url": "Sequence"
        },
        {
            "name": "Json并发",
            "type": 2,
            "url": "Parallel"
        },
        {
            "name": "解析聚合",
            "type": 3,
            "url": "Demo"
        },
        {"name":"4k专用","type":1,"url":"https://jx.tvcms.top/api/?key=0e6ba5eac2b38a9f02c3ebea29ab96eb&url=","ext":{"flag":["TD"],"header":{"User-Agent":"Dart/2.14 (dart:io)"}}},
 {"name": "酷云高清", "type": 1, "url": "http://110.42.2.247:880/analysis/json/?uid=2100&my=afimnpqrvBHJKOQS47&mgtv=app&url=",
		"ext": {
			"flag": ["qq", "腾讯", "qiyi", "爱奇艺", "奇艺", "youku", "优酷", "mgtv", "芒果", "letv", "乐视", "pptv", "PPTV", "sohu", "bilibili", "哔哩哔哩", "哔哩"],"header":{"User-Agent":"okhttp/4.1.0"}
		}    }, 
{"name":"酷云高清2","type":1,"url":"http://110.42.2.247:880/analysis/json/?uid=2373&my=fgimDLMOQTUWYZ0568&url=",
		"ext": {
			"flag": ["qq", "腾讯", "qiyi", "爱奇艺", "奇艺", "youku", "优酷", "mgtv", "芒果", "letv", "乐视", "pptv", "PPTV", "sohu", "bilibili", "哔哩哔哩", "哔哩"],"header":{"User-Agent":"okhttp/4.1.0"}
		}    },

{"name":"蓝光秒播","type":1,"url":"http://43.143.107.57:417/api/?key=73259318e3d893e5b73fd87f20fbc2f7&url=","ext":{"flag":["qq","qiyi","mgtv","youku","letv","sohu","xigua","1905","优播线路","腾播线路"],"header":{"User-Agent":"Dart/2.14 (dart:io)"}}},
       {
            "name": "666",
            "type": 1,
            "url": "http://jx.fuqizhishi.com:63/接口地址www.肥猫.love/肥猫专用.php?url="
        },
        {
            "name": "777",
            "type": 1,
            "url": "http://27.124.4.42:4567/jhjson/ceshi.php?url="
        },
        {
            "name": "小城解析",
            "type": 1,
            "url": "https://jx.ccabc.cc/xc/?key=5567332json&url="
        },
        {
            "name": "星辰云解析",
            "type": 1,
            "url": "https://json.key521.cn/api/?key=df27d9ca9ec97e22c47f8565a50aa6f5&url="
        },
        {
            "name": "小新解析",
            "type": 1,
            "url": "http://xiaoxin.1080p.me/home/api?type=ys&uid=2781037&key=eijkoqxBDFGILRTUWZ&url="
        },
        {
            "name": "小鱼解析",
            "type": 1,
            "url": "http://json.84jia.com/home/api?type=ys&uid=335253&key=fjklpqsyCDGMNQRWX8&url="
        },
        {
            "name": "parwix稳定",
            "type": 0,
            "url": "https://jx.bozrc.com:4433/player/?url=",
            "ext": {
                "flag": [
                    "qq",
                    "腾讯",
                    "qiyi",
                    "iqiyi",
                    "爱奇艺",
                    "奇艺",
                    "youku",
                    "优酷",
                    "mgtv",
                    "芒果",
                    "letv",
                    "乐视",
                    "pptv",
                    "PPTV",
                    "sohu",
                    "bilibili",
                    "哔哩哔哩",
                    "哔哩"
                ]
            }
        },
        {
            "name": "keyu",
            "type": 1,
            "url": "http://newjiexi.gotka.top/keyu3.php?url=",
            "ext": {
                "flag": [
                    "qq",
                    "腾讯",
                    "qiyi",
                    "爱奇艺",
                    "奇艺",
                    "youku",
                    "优酷",
                    "mgtv",
                    "芒果",
                    "letv",
                    "乐视",
                    "pptv",
                    "PPTV",
                    "sohu",
                    "bilibili",
                    "哔哩哔哩",
                    "哔哩"
                ],
                "header": {
                    "User-Agent": "okhttp/4.1.0"
                }
            }
        },
  {"name":"lk","type":1,"url":"https://k.json.icu/home/api?type=ys&uid=6399107&key=bdlmrswBDHIKZ01238&url="},
 { "name": "TVB云播","type": 1,"url": "https://jxm.qwrev534.top/?url="},

 {"name":"777","type": 0,"url":"https://jx.777jiexi.com/player/?url="},
 {"name": "1","type":0,"url":"https://jxdp.codermart.net/?url="},
 {"name":"AG","type":0,"url":"https://www.codjx.com/?url="},
 {
      "name": "月",
      "type": 0,
      "url": "https://jx.xmflv.com/?url="
    },
{"name":"光","type":1,"url":"http://pandown.pro/app/ysmjx.php?url=","ext":{"flag":["qq","腾讯","qiyi","爱奇艺","奇艺","youku","优酷","mgtv","芒果","letv","乐视","pptv","PPTV","sohu","bilibili","哔哩哔哩","哔哩"],"header":{"User-Agent":"okhttp/4.1.0"}}},
{"name":"宝","type":1,"url":"http://jx.fuqizhishi.com:63/API.php?appkey=feimao&url="},
{"name":"盒","type":0,"url":" https://tljiaqing.nde.tw/m3u8/?url="},
{"name":"BOX","type":1,"url":"http://45.248.10.163:4433/json.php?wap=0&url="},
{"name":"解析","type":0,"url":"https://h5.freejson.xyz/player/?url="},
{"name":"解析2","type":1,"url":"rxjx.kuanjv.com/allm3u8.php?url="},
{"name":"解析4","type":1,"url":"http://lanlan.ckflv.cn/?url=","ext":{"flag":["qiyi","qq","letv","sohu","youku","mgtv","bilibili","wasu","xigua","1905"]}},
{"name":"解析5","type":1,"url":"https://www.1920lgzy.top/json.php?url=","ext":{"header":{"User-Agent":"Mozilla/5.0"}}},
{"name":"解析6","type":1,"url":"https://hc.izny.cn/json.php?url="},
{"name":"解析7","type":1,"url":"https://rx.bt5v.com/json/jsonindex.php/?url="},
{"name":"解析8","type":1,"url":"https://www.nxflv.com/?url=","header":{"User-Agent":"Mozilla/5.0"}},
{"name":"解析9","type":1,"url":"http://3.37.195.161:54371/parse/api/无名.js?url=","header":{"User-Agent":"Mozilla/5.0"}}
],
	
"rules": [
{"host":"*","rule":["default.365yg.com"]},{"host":"dyxs20.com","rule":[".m3u8"]},{"host":"www.agemys.cc","rule":["cdn-tos","obj/tos-cn"]},{"host":"zjmiao.com","rule":["play.videomiao.vip/API.php","time="]},{"host":"www.sharenice.net","rule":["http.*?/play.{0,3}\\?[^url]{2,8}=.*"]},{"host":"www.sharenice.net","rule":["qianpailive.com","vid="]},{"host":"*","rule":["douyin.com/aweme","video_id="]},{"host":"*","rule":["huoshan.com","/item/video/"]},{"host":"*","rule":["http((?!http).){12,}?\\.(m3u8|mp4|flv|avi|mkv|rm|wmv|mpg|m4a)\\?.*"]},{"host":"*","rule":["http((?!http).){12,}\\.(m3u8|mp4|flv|avi|mkv|rm|wmv|mpg|m4a)"]}
],

"flags":["youku","qq","QQ","iqiyi","qiyi","letv","sohu","tudou","pptv","PPTV","mgtv","ltnb","rx","CL4K","xfyun","wuduzy","wasu","bilibili","renrenmi","xmm","xigua","m1905 ","funshion ","优酷","芒果","腾讯","爱奇艺","奇艺","哔哩哔哩","哔哩"],
"ijk":[
{"group":"软解码","options":[
{"category":4,"name":"opensles","value":"0"},
{"category":4,"name":"overlay-format","value":"842225234"},
{"category":4,"name":"framedrop","value":"1"},
{"category":4,"name":"soundtouch","value":"1"},
{"category":4,"name":"start-on-prepared","value":"1"},
{"category":1,"name":"http-detect-range-support","value":"0"},
{"category":1,"name":"fflags","value":"fastseek"},
{"category":2,"name":"skip_loop_filter","value":"48"},
{"category":4,"name":"reconnect","value":"1"},
{"category":4,"name":"enable-accurate-seek","value":"0"},
{"category":4,"name":"mediacodec","value":"0"},
{"category":4,"name":"mediacodec-auto-rotate","value":"0"},
{"category":4,"name":"mediacodec-handle-resolution-change","value":"0"},
{"category":4,"name":"mediacodec-hevc","value":"0"},
{"category":1,"name":"dns_cache_timeout","value":"600000000"}
]},
{"group":"硬解码","options":[
{"category":4,"name":"opensles","value":"0"},
{"category":4,"name":"overlay-format","value":"842225234"},
{"category":4,"name":"framedrop","value":"1"},
{"category":4,"name":"soundtouch","value":"1"},
{"category":4,"name":"start-on-prepared","value":"1"},
{"category":1,"name":"http-detect-range-support","value":"0"},
{"category":1,"name":"fflags","value":"fastseek"},
{"category":2,"name":"skip_loop_filter","value":"48"},
{"category":4,"name":"reconnect","value":"1"},
{"category":4,"name":"enable-accurate-seek","value":"0"},
{"category":4,"name":"mediacodec","value":"1"},
{"category":4,"name":"mediacodec-auto-rotate","value":"1"},
{"category":4,"name":"mediacodec-handle-resolution-change","value":"1"},
{"category":4,"name":"mediacodec-hevc","value":"1"},
{"category":1,"name":"dns_cache_timeout","value":"600000000"}
]}
],
"wallpaper":"https://picsum.photos/1080/","warningText":"月光宝盒完全免费，切勿付费购买。",
"ads":["mimg.0c1q0l.cn","www.googletagmanager.com","www.google-analytics.com","mc.usihnbcq.cn","mg.g1mm3d.cn","mscs.svaeuzh.cn","cnzz.hhttm.top","tp.vinuxhome.com","cnzz.mmstat.com","www.baihuillq.com","s23.cnzz.com","z3.cnzz.com","c.cnzz.com","stj.v1vo.top","z12.cnzz.com","img.mosflower.cn","tips.gamevvip.com","ehwe.yhdtns.com","xdn.cqqc3.com","www.jixunkyy.cn","sp.chemacid.cn","hm.baidu.com","s9.cnzz.com","z6.cnzz.com","um.cavuc.com","mav.mavuz.com","wofwk.aoidf3.com","z5.cnzz.com","xc.hubeijieshikj.cn","tj.tianwenhu.com","xg.gars57.cn","k.jinxiuzhilv.com","cdn.bootcss.com","ppl.xunzhuo123.com","xomk.jiangjunmh.top","img.xunzhuo123.com","z1.cnzz.com","s13.cnzz.com","xg.huataisangao.cn","z7.cnzz.com","xg.huataisangao.cn","z2.cnzz.com","s96.cnzz.com","q11.cnzz.com","thy.dacedsfa.cn","xg.whsbpw.cn","s19.cnzz.com","z8.cnzz.com","s4.cnzz.com","f5w.as12df.top","ae01.alicdn.com","www.92424.cn","k.wudejia.com","vivovip.mmszxc.top","qiu.xixiqiu.com","cdnjs.hnfenxun.com","cms.qdwght.com"]
}

