    {
    
    "作者":"荷城茶秀",
    
    "站名":"亿视影院",
    
    "主页url":"http://lanyi.yy365.vip/",
    
    "简介":"月儿QQ1281112087+",
    
    "影片类型":"module-info-tag\">&&</div></div></div></div>",
    
    "线路数组":"module-tab-item tab-item&&</small>[不包含:狐狸#火凤凰]",
    
    "线路标题":"+<span>&&[替换:</span><small>>>🌙共]+集🌙",
    
    "分类url":"http://lanyi.yy365.vip/index.php/vod/show/area/{area}/by/{by}/class/{class}/id/{cateId}/lang/{lang}/page/{catePg}/year/{year}.html;;ak",
    
    "分类":"电影$1#电视剧$2#综艺$3#动漫$4#体育$5#短剧$21"}
